X:1
T:In the Bleak Midwinter
M:4/4
L:1/8
Q:65
K:D
F2 | "D"F3 G A2 F2 | "Bsus4"E4 "Bm"D4 | "Em"E3 F E2 "Bm7"B,2 | "Em7"E8 |
"D"F3 G A2 F2 | "Bsus4"E4 "Bm"D4 | "Em7"E2 F2 "A7"E3 D | "D"D8 |
"G"G3 F G2 "D7"A2 | "G"B4 "Bm"F4 | "D"A2 F2 "G6"E2 "Gmaj7"D2 | "A"C8 |
"D"F3 G A2 F2 | "Bsus4"E4 "Bm"D4 | "Em"E2 F2 "A7"E3 D | "D"D8 |
