X:1
T:Hark! The Herald Angel Sing
M:4/4
L:1/8
Q:80
K:D
"D"A,2 D2 "A"D3 C | "D/F#"D2 "D"F2 "D/A"F2 "A"E2 | "D/F#"A2 A2 "G"A3 G | "D/A"F2 "A"E2 "D"F4 |
"D"A,2 D2 "A"D3 C | "Bm"D2 F2 "E/G#"F2 E2 | "D/F#"A2 "E/G#"E2 "A"E3 C | "Dmaj7"C2 "E"B,2 "A"A,4 |
A2 A2 A2 "D"D2 | "A7/C#"G2 "D"F2 "D/A"F2 "A"E2 | A2 A2 A2 "D"D2 | "A7/C#"G2 "D"F2 "D/A"F2 "A"E2 |
"G"B2 B2 B2 A2 | "Em/G"G2 "B7"F2 "Em"G4 | "A"E2 "A7/G"FG "D/F#"A3 "D"D | "D/A"D2 "A"E2 "D"F4 |
"G"B3 B B2 A2 | "Em/G"G2 "B7"F2 "Em"G4 | "A/C#"E2 "A7"FG "D"A3 D | "D/A"D2 "A"E2 "D"D4 |
