X:1
T:Oh Come All Ye Faithful
M:4/4
L:1/4
Q:90
K:G
G | "G"G2 DG | "D"A2 D2 | "G"B "D"A "G"B "C"c | "G"B2 "D"AG | "Em"G2 "D"F "A"E | "D"F "G"G "D"A "Em"B |
"D"F2 "A"E>D | "D"D4 | "G"d2 "D"c "G"B | "Am"c2 "G"B2 | "D"A "G"B "Em"G "Am"A | "D"F>E DG | "G"G FGA |
G2 DB | BABc | B2 AB | "Am"c "G"B "D"A "A7"G | "D"F2 "G"G "C"c | "G"B2 "D"A>G | "G"G4 |
