X:1
T:O Little Town Of Bethlehem
M:4/4
L:1/4
Q:60
K:D
A, | "D"D "G"D "D"D "Em"E | "D"F/E/ "Bm"F/G/ "A"A "Bm"F | "Em"G "D/F#"F/D/ "Em/G"E "A7"E | "D"D3 "A"A, |
"D"D "G"D "D"D "Em"E | "D"F/E/ "Bm"F/G/ "A"A "Bm"F | "Em"G "D/F#"F/D/ "Em/G"E "A7"E | "D"D3 "Bm"D/F/ |
"F#m"A>B "A7"A/G/F/E/ | "D"D/E/ "Bm"F/G/ "A"A A, | "D/F#"D "D"F "Em/G"E "Bm"D | "A"A,2 A,2 |
"D"D "G"D "D"D "Em"E | "D"F/E/ "Bm"F/G/ "A"A "Bm"F | "Em"G "D/F#"F/D/ "Asus4"E "A"E | "D"D4 |
